[
  {
    "id": "ea650151-74b9-4f2f-a803-366762e2bb45",
    "data": [
      {
        "text": "addresse",
        "alias": "location",
        "meta": "@sys.location",
        "userDefined": true
      }
    ],
    "isTemplate": false,
    "count": 0,
    "updated": 0
  }
]